	
        ___   
       (* *)     ПОД КУПОЛОМ    
		 |		  
     __==|==__   ВСЕЛЕННОЙ   
    | | +:- | |  
   ( )|  :  |( ) 
      \...../    
     / /_|_\ \   
    (""     "")  johnbrown, 2017  
	
	
 ((==))   +========+      ________
/ /  \ \  | [=][=] |     /   ||   \
		  +========+     | = || = | 
  ____	  | //|//\ |     | = || = |
 / +- \	  +========+     |  (||)  |
 | :: |   |        |     |   ||   |
_|____|___|________|_____|___||___|_


	
    +=======+  //=======\\
    | | | | |  ||\     /|| [--]
	| |	| |	|  || \___/ || [::]
    +=======+  || /\О/\ ||    
  +===+ +====+ || \/О\/ || ====> 	
  ||||| |||||| || /   \ ||
__+===+_+====+_||/_____\||__________



	 
   /==\ 	/==\     /==\	 _____ 
  //  \\   //  \\   //  \\  |[   ]|
 /______\ /______\ /______\ |[   ]|
 | [oo] | | [oo] | | [oо] | |-----|
 |======| |======| |======| | ::: |  
_|_____1|_|_____2|_|_____3|_|_____|_




====================================
    |   \|/         		 '\|/'
   \|/  -|-  ***        o\o '\'|'/'
   \|/ o\|/o  |    _\_  o/o  '\|/'
---\|/_o\|/o_|||--//  \--\-----|----
....|...{|}..|||..\\__/../.....|....
------------------------------------





  _____	 	______    _____________
 / ... \   |      |  |КАРТА СЕКТОРА|	   
 | ... |   |______|  |		*    * |
()_____()  /..;;;;/  |	* *   *    |	
||_____||  |__..__|  |_*_________*_|    
   _|_	   |__..__|   
__(_|_)_____o____o__________________



    ___________________________       
   /   // 	||   _   ||   \\   \
  /\__//____||__/ \__||____\\__/\
 / / __________/   \__________ \ \  
/\/ /|[O](=.=)|     | [..::] |\ \/\ 
\/ / |[OO] |  |_____| [;;''] | \ \/\
/ /| |_____|____|_|__________| |\ \/


             .
			//		|        *
	*	.---/  	  - * -   
      */~~~/~\      |    *
	  |~~~/~~~|  *      
 *     \~/~~~/	    Продолжение 
	 * //---'	*	следует...
	  //					
      '




